Classification with 25360 samples

Confusion matrix: (pred\real)
	EN	PT	SP	
EN	8404	7498	7147	
PT	842	753	715	
SP	0	0	1	

For label EN
Precision: 0.3646145168987809
Accuracy: 0.38931388012618295
Recall: 0.90893359290504
F1: 0.5204520823656913

For label PT
Precision: 0.32597402597402597
Accuracy: 0.642941640378549
Recall: 0.09126166525269665
F1: 0.14260013256320425

For label SP
Precision: 1.0
Accuracy: 0.6899842271293375
Recall: 0.00012717792191275595
F1: 0.000254323499491353

On average: 
Precision: 0.5635295142909357
Accuracy: 0.5740799158780231
Recall: 0.3334408120265498
F1: 0.6633065384283869